<svg xmlns="http://www.w3.org/2000/svg" width="12.537" height="12" viewBox="0 0 12.537 12">
  <path id="wishlist" d="M32.395,4.007l-3.424-.5L27.441.4A.751.751,0,0,0,26.1.4l-1.53,3.1-3.424.5a.75.75,0,0,0-.415,1.28L23.2,7.7l-.586,3.41a.749.749,0,0,0,1.087.79l3.063-1.61,3.063,1.61a.75.75,0,0,0,1.087-.79L30.333,7.7,32.81,5.286a.75.75,0,0,0-.415-1.28Zm-3.269,3.3.555,3.243-2.913-1.53-2.913,1.53.555-3.243-2.357-2.3,3.257-.473,1.458-2.953,1.458,2.953,3.257.473-2.358,2.3Z" transform="translate(-20.5 0.013)" fill="#fd4949"/>
</svg>
