<svg xmlns="http://www.w3.org/2000/svg" width="24.036" height="23.972" viewBox="0 0 24.036 23.972">
  <g id="bag" transform="translate(-1.232 -1.285)">
    <path id="Path_3940" data-name="Path 3940" d="M5.278,6.979a.857.857,0,0,1-.592-.246.842.842,0,0,1,0-1.184L8.739,1.5A.837.837,0,0,1,9.923,2.68L5.87,6.734a.877.877,0,0,1-.592.245Z" transform="translate(0.372)" fill="#fff"/>
    <path id="Path_3941" data-name="Path 3941" d="M19.32,6.979a.828.828,0,0,1-.592-.246L14.674,2.68A.837.837,0,0,1,15.858,1.5l4.053,4.05a.842.842,0,0,1,0,1.184A.857.857,0,0,1,19.32,6.979Z" transform="translate(1.53)" fill="#fff"/>
    <path id="Path_3942" data-name="Path 3942" d="M22.415,11.243H4.32A3.006,3.006,0,0,1,2,10.606a3.246,3.246,0,0,1-.75-2.434C1.25,5.1,3.494,5.1,4.565,5.1h17.37c1.072,0,3.315,0,3.315,3.071A3.229,3.229,0,0,1,24.5,10.6,2.768,2.768,0,0,1,22.415,11.243ZM4.565,9.568H22.191c.5.011.971.011,1.127-.145.078-.078.246-.346.246-1.251,0-1.262-.313-1.4-1.641-1.4H4.565c-1.328,0-1.641.134-1.641,1.4,0,.9.179,1.172.246,1.251a2.246,2.246,0,0,0,1.13.145Z" transform="translate(0 0.449)" fill="#fff"/>
    <path id="Path_3943" data-name="Path 3943" d="M9.847,18.889a.844.844,0,0,1-.837-.837V14.087a.837.837,0,1,1,1.675,0v3.964a.836.836,0,0,1-.838.838Z" transform="translate(0.902 1.399)" fill="#fff"/>
    <path id="Path_3944" data-name="Path 3944" d="M14.447,18.889a.844.844,0,0,1-.837-.837V14.087a.838.838,0,1,1,1.675,0v3.964a.836.836,0,0,1-.838.838Z" transform="translate(1.437 1.399)" fill="#fff"/>
    <path id="Path_3945" data-name="Path 3945" d="M16.3,24.325H9.571c-4,0-4.889-2.378-5.235-4.444L2.762,10.222a.837.837,0,1,1,1.652-.268L5.988,19.6c.324,1.976.993,3.048,3.583,3.048H16.3c2.869,0,3.192-1,3.561-2.948l1.875-9.77a.836.836,0,1,1,1.641.324L21.5,20.026C21.068,22.293,20.343,24.325,16.3,24.325Z" transform="translate(0.175 0.932)" fill="#fff"/>
  </g>
</svg>
