<svg xmlns="http://www.w3.org/2000/svg" width="24" height="24" viewBox="0 0 24 24">
  <g id="programming-arrows" transform="translate(-1.25 -1.245)">
    <path id="Path_3934" data-name="Path 3934" d="M19.962,18.266a.844.844,0,0,1-.837-.837V6.821a1.4,1.4,0,0,0-1.4-1.4H11.587a.837.837,0,0,1,0-1.675h6.141A3.069,3.069,0,0,1,20.8,6.821V17.428A.844.844,0,0,1,19.962,18.266Z" transform="translate(1.101 0.292)" fill="#292d32"/>
    <path id="Path_3935" data-name="Path 3935" d="M14.437,8.508a.872.872,0,0,1-.536-.19l-3.35-2.791a.833.833,0,0,1-.3-.648.85.85,0,0,1,.3-.648L13.9,1.44a.841.841,0,0,1,1.072,1.3L12.394,4.879l2.579,2.144a.838.838,0,0,1-.536,1.485Z" transform="translate(1.046 0)" fill="#292d32"/>
    <path id="Path_3936" data-name="Path 3936" d="M19.437,23.624a4.187,4.187,0,1,1,4.187-4.187A4.189,4.189,0,0,1,19.437,23.624Zm0-6.7a2.512,2.512,0,1,0,2.512,2.512A2.516,2.516,0,0,0,19.437,16.925Z" transform="translate(1.626 1.621)" fill="#292d32"/>
    <path id="Path_3937" data-name="Path 3937" d="M13.462,21.766H7.321A3.069,3.069,0,0,1,4.25,18.695V8.087a.837.837,0,0,1,1.675,0V18.695a1.4,1.4,0,0,0,1.4,1.4h6.141a.837.837,0,1,1,0,1.675Z" transform="translate(0.35 0.688)" fill="#292d32"/>
    <path id="Path_3938" data-name="Path 3938" d="M10.089,23.508a.847.847,0,0,1-.648-.3.837.837,0,0,1,.112-1.184l2.579-2.144L9.553,17.735a.841.841,0,0,1,1.072-1.3l3.35,2.791a.833.833,0,0,1,.3.648.85.85,0,0,1-.3.648l-3.35,2.791A.872.872,0,0,1,10.089,23.508Z" transform="translate(0.929 1.737)" fill="#292d32"/>
    <path id="Path_3939" data-name="Path 3939" d="M5.437,9.624A4.187,4.187,0,1,1,9.624,5.437,4.189,4.189,0,0,1,5.437,9.624Zm0-6.7A2.512,2.512,0,1,0,7.95,5.437,2.516,2.516,0,0,0,5.437,2.925Z" transform="translate(0 0.001)" fill="#292d32"/>
  </g>
</svg>
