<svg xmlns="http://www.w3.org/2000/svg" width="32.451" height="35.364" viewBox="0 0 32.451 35.364">
  <g id="_2" data-name="2" transform="translate(-32 -16)">
    <path id="Path_1071" data-name="Path 1071" d="M33.165,45.709v-26.8a1.75,1.75,0,0,1,1.748-1.748H47.728a1.75,1.75,0,0,1,1.748,1.748V34.641h1.165V18.913A2.916,2.916,0,0,0,47.728,16H34.913A2.916,2.916,0,0,0,32,18.913v26.8a2.916,2.916,0,0,0,2.913,2.913h3.5V47.456h-3.5A1.75,1.75,0,0,1,33.165,45.709Z" fill="#fff"/>
    <path id="Path_1072" data-name="Path 1072" d="M168,48h1.165v1.165H168Z" transform="translate(-126.097 -29.67)" fill="#fff"/>
    <path id="Path_1073" data-name="Path 1073" d="M136,48h1.165v1.165H136Z" transform="translate(-96.427 -29.67)" fill="#fff"/>
    <path id="Path_1074" data-name="Path 1074" d="M72,320h3.5v1.165H72Z" transform="translate(-37.087 -281.864)" fill="#fff"/>
    <path id="Path_1075" data-name="Path 1075" d="M72,352h3.5v1.165H72Z" transform="translate(-37.087 -311.534)" fill="#fff"/>
    <path id="Path_1076" data-name="Path 1076" d="M72,384h3.5v1.165H72Z" transform="translate(-37.087 -341.204)" fill="#fff"/>
    <path id="Path_1077" data-name="Path 1077" d="M72,288h3.5v1.165H72Z" transform="translate(-37.087 -252.194)" fill="#fff"/>
    <path id="Path_1078" data-name="Path 1078" d="M120,256h8.155v1.165H120Z" transform="translate(-81.592 -222.524)" fill="#fff"/>
    <path id="Path_1079" data-name="Path 1079" d="M88,256h1.165v1.165H88Z" transform="translate(-51.922 -222.524)" fill="#fff"/>
    <path id="Path_1080" data-name="Path 1080" d="M75.494,105.318h5.825a.583.583,0,0,0,.583-.583v-3.914l1.606.4a.583.583,0,0,0,.706-.424l.583-2.33a.583.583,0,0,0-.336-.677l-4.078-1.748a.583.583,0,0,0-.641.124L78.407,97.5l-1.336-1.336a.583.583,0,0,0-.641-.124l-4.078,1.748a.583.583,0,0,0-.336.677l.583,2.33a.583.583,0,0,0,.706.424l1.606-.4v3.914A.583.583,0,0,0,75.494,105.318Zm-1.906-5.367-.321-1.284,3.259-1.4,1.469,1.469a.583.583,0,0,0,.824,0l1.469-1.469,3.259,1.4-.321,1.284-1.765-.441a.583.583,0,0,0-.724.565v4.078h-4.66v-4.078a.583.583,0,0,0-.724-.565Z" transform="translate(-37.086 -74.172)" fill="#fff"/>
    <path id="Path_1081" data-name="Path 1081" d="M159.884,297.079v-5a2.333,2.333,0,0,0-2.33-2.33h-1.821A2.334,2.334,0,0,0,153.476,288H138.33a2.333,2.333,0,0,0-2.33,2.33v10.486a2.333,2.333,0,0,0,2.33,2.33h15.146a2.332,2.332,0,0,0,2.043-1.211l1.623,1.623.824-.824-2.913-2.913a2.713,2.713,0,0,1,0-3.836.583.583,0,0,0,0-.824l-2.039-2.039a.653.653,0,0,1,.924-.924l2.039,2.039.824-.824-.994-.994v-1.506h1.748a1.166,1.166,0,0,1,1.165,1.165v5.243a.583.583,0,0,0,.171.412l1.165,1.165.824-.824Zm-7.694-5.7a1.818,1.818,0,0,0,0,2.571l1.657,1.657a3.88,3.88,0,0,0,.381,5.042l.39.39a1.167,1.167,0,0,1-1.144.945H138.33a1.166,1.166,0,0,1-1.165-1.165V290.33a1.166,1.166,0,0,1,1.165-1.165h15.146a1.166,1.166,0,0,1,1.165,1.165v.935A1.82,1.82,0,0,0,152.19,291.375Z" transform="translate(-96.427 -252.194)" fill="#fff"/>
    <path id="Path_1082" data-name="Path 1082" d="M168.583,323.5h2.33a.583.583,0,0,0,.583-.583v-2.33a.583.583,0,0,0-.583-.583h-2.33a.583.583,0,0,0-.583.583v2.33A.583.583,0,0,0,168.583,323.5Zm.583-2.33h1.165v1.165h-1.165Z" transform="translate(-126.097 -281.864)" fill="#fff"/>
    <path id="Path_1083" data-name="Path 1083" d="M168,384h2.33v1.165H168Z" transform="translate(-126.097 -341.204)" fill="#fff"/>
    <path id="Path_1084" data-name="Path 1084" d="M216,384h1.165v1.165H216Z" transform="translate(-170.602 -341.204)" fill="#fff"/>
    <path id="Path_1085" data-name="Path 1085" d="M248,384h1.165v1.165H248Z" transform="translate(-200.272 -341.204)" fill="#fff"/>
    <path id="Path_1086" data-name="Path 1086" d="M280,384h1.165v1.165H280Z" transform="translate(-229.942 -341.204)" fill="#fff"/>
    <path id="Path_1087" data-name="Path 1087" d="M312,384h2.33v1.165H312Z" transform="translate(-259.612 -341.204)" fill="#fff"/>
    <path id="Path_1088" data-name="Path 1088" d="M168,416h4.078v1.165H168Z" transform="translate(-126.097 -370.874)" fill="#fff"/>
    <path id="Path_1089" data-name="Path 1089" d="M168,448h9.9v1.165H168Z" transform="translate(-126.097 -400.544)" fill="#fff"/>
    <path id="Path_1090" data-name="Path 1090" d="M305.748,175.573h2.913v-1.165h-2.913a.583.583,0,0,1-.583-.583V168H304v5.825A1.75,1.75,0,0,0,305.748,175.573Z" transform="translate(-252.194 -140.932)" fill="#fff"/>
    <path id="Path_1091" data-name="Path 1091" d="M304,136h1.165v1.165H304Z" transform="translate(-252.194 -111.262)" fill="#fff"/>
  </g>
</svg>
